%YAML 1.1
%TAG !u! tag:unity3d.com,2011:
--- !u!74 &7400000
AnimationClip:
  m_ObjectHideFlags: 0
  m_CorrespondingSourceObject: {fileID: 0}
  m_PrefabInstance: {fileID: 0}
  m_PrefabAsset: {fileID: 0}
  m_Name: Idle
  serializedVersion: 6
  m_Legacy: 0
  m_Compressed: 0
  m_UseHighQualityCurve: 1
  m_RotationCurves: []
  m_CompressedRotationCurves: []
  m_EulerCurves: []
  m_PositionCurves: []
  m_ScaleCurves: []
  m_FloatCurves: []
  m_PPtrCurves:
  - curve:
    - time: 0
      value: {fileID: 21300000, guid: 96f823f5378c91048b7515920953383f, type: 3}
    - time: 0.06666667
      value: {fileID: 21300000, guid: 4a6c708a87b15df4399116c9653f4130, type: 3}
    - time: 0.13333334
      value: {fileID: 21300000, guid: ac96b7730bbe6594292db8166086fd56, type: 3}
    - time: 0.2
      value: {fileID: 21300000, guid: 00f316acb82c1724a8d6d47565ffb1c2, type: 3}
    - time: 0.26666668
      value: {fileID: 21300000, guid: 0de15a89c9938d949969e13021237f93, type: 3}
    - time: 0.33333334
      value: {fileID: 21300000, guid: fc4a86ac5a9857744aca2ad25f77d141, type: 3}
    - time: 0.4
      value: {fileID: 21300000, guid: 0ae43e4e49dceef48b349766253495e9, type: 3}
    - time: 0.46666667
      value: {fileID: 21300000, guid: b63f3e1456aebb247b3652fd1b3a55ea, type: 3}
    - time: 0.53333336
      value: {fileID: 21300000, guid: cd27d65aec7e8aa4eaaaa65735d9e05d, type: 3}
    - time: 0.6
      value: {fileID: 21300000, guid: a4bd6e80e4898a249ac26e28bfc171fb, type: 3}
    - time: 0.6666667
      value: {fileID: 21300000, guid: 1c07fece69e57f84fa870b447853582c, type: 3}
    - time: 0.73333335
      value: {fileID: 21300000, guid: 09ec7ae11db03f146bfa2c57cde00059, type: 3}
    - time: 0.8
      value: {fileID: 21300000, guid: f6021e054ddee9449929a488e7ebcfaf, type: 3}
    - time: 0.8666667
      value: {fileID: 21300000, guid: c9589f30b7ef86244839e26bd0e1c342, type: 3}
    - time: 0.93333334
      value: {fileID: 21300000, guid: edcbff553a76c0d409d4e7bb7647e2f0, type: 3}
    - time: 1
      value: {fileID: 21300000, guid: 600f83d918c0304418f1a256e9376acf, type: 3}
    - time: 1.0666667
      value: {fileID: 21300000, guid: ddf2ee5ea79e54f4f92bc3ae2bccda57, type: 3}
    - time: 1.1333333
      value: {fileID: 21300000, guid: 2094fc1296e131a4a9e44b4ceb3fad7c, type: 3}
    - time: 1.2
      value: {fileID: 21300000, guid: cc02f74c18a538f4daf928139711e028, type: 3}
    - time: 1.2666667
      value: {fileID: 21300000, guid: 05f9fbfa1c1bae343a4db27b27a9e7ff, type: 3}
    - time: 1.3333334
      value: {fileID: 21300000, guid: 2ed55063961fef04d9c1ffed22704fc8, type: 3}
    - time: 1.4
      value: {fileID: 21300000, guid: af099582f148254438caf1cbd809a18a, type: 3}
    - time: 1.4666667
      value: {fileID: 21300000, guid: 6476672ec24fdb4469899037ff158800, type: 3}
    - time: 1.5333333
      value: {fileID: 21300000, guid: fc67d162b554f8a4e9ce2318d1f5f0ad, type: 3}
    - time: 1.6
      value: {fileID: 21300000, guid: f1ad3ad0a661f6642a930791056e2091, type: 3}
    attribute: m_Sprite
    path: 
    classID: 212
    script: {fileID: 0}
  m_SampleRate: 15
  m_WrapMode: 0
  m_Bounds:
    m_Center: {x: 0, y: 0, z: 0}
    m_Extent: {x: 0, y: 0, z: 0}
  m_ClipBindingConstant:
    genericBindings:
    - serializedVersion: 2
      path: 0
      attribute: 0
      script: {fileID: 0}
      typeID: 212
      customType: 23
      isPPtrCurve: 1
    pptrCurveMapping:
    - {fileID: 21300000, guid: 96f823f5378c91048b7515920953383f, type: 3}
    - {fileID: 21300000, guid: 4a6c708a87b15df4399116c9653f4130, type: 3}
    - {fileID: 21300000, guid: ac96b7730bbe6594292db8166086fd56, type: 3}
    - {fileID: 21300000, guid: 00f316acb82c1724a8d6d47565ffb1c2, type: 3}
    - {fileID: 21300000, guid: 0de15a89c9938d949969e13021237f93, type: 3}
    - {fileID: 21300000, guid: fc4a86ac5a9857744aca2ad25f77d141, type: 3}
    - {fileID: 21300000, guid: 0ae43e4e49dceef48b349766253495e9, type: 3}
    - {fileID: 21300000, guid: b63f3e1456aebb247b3652fd1b3a55ea, type: 3}
    - {fileID: 21300000, guid: cd27d65aec7e8aa4eaaaa65735d9e05d, type: 3}
    - {fileID: 21300000, guid: a4bd6e80e4898a249ac26e28bfc171fb, type: 3}
    - {fileID: 21300000, guid: 1c07fece69e57f84fa870b447853582c, type: 3}
    - {fileID: 21300000, guid: 09ec7ae11db03f146bfa2c57cde00059, type: 3}
    - {fileID: 21300000, guid: f6021e054ddee9449929a488e7ebcfaf, type: 3}
    - {fileID: 21300000, guid: c9589f30b7ef86244839e26bd0e1c342, type: 3}
    - {fileID: 21300000, guid: edcbff553a76c0d409d4e7bb7647e2f0, type: 3}
    - {fileID: 21300000, guid: 600f83d918c0304418f1a256e9376acf, type: 3}
    - {fileID: 21300000, guid: ddf2ee5ea79e54f4f92bc3ae2bccda57, type: 3}
    - {fileID: 21300000, guid: 2094fc1296e131a4a9e44b4ceb3fad7c, type: 3}
    - {fileID: 21300000, guid: cc02f74c18a538f4daf928139711e028, type: 3}
    - {fileID: 21300000, guid: 05f9fbfa1c1bae343a4db27b27a9e7ff, type: 3}
    - {fileID: 21300000, guid: 2ed55063961fef04d9c1ffed22704fc8, type: 3}
    - {fileID: 21300000, guid: af099582f148254438caf1cbd809a18a, type: 3}
    - {fileID: 21300000, guid: 6476672ec24fdb4469899037ff158800, type: 3}
    - {fileID: 21300000, guid: fc67d162b554f8a4e9ce2318d1f5f0ad, type: 3}
    - {fileID: 21300000, guid: f1ad3ad0a661f6642a930791056e2091, type: 3}
  m_AnimationClipSettings:
    serializedVersion: 2
    m_AdditiveReferencePoseClip: {fileID: 0}
    m_AdditiveReferencePoseTime: 0
    m_StartTime: 0
    m_StopTime: 1.6666667
    m_OrientationOffsetY: 0
    m_Level: 0
    m_CycleOffset: 0
    m_HasAdditiveReferencePose: 0
    m_LoopTime: 1
    m_LoopBlend: 0
    m_LoopBlendOrientation: 0
    m_LoopBlendPositionY: 0
    m_LoopBlendPositionXZ: 0
    m_KeepOriginalOrientation: 0
    m_KeepOriginalPositionY: 1
    m_KeepOriginalPositionXZ: 0
    m_HeightFromFeet: 0
    m_Mirror: 0
  m_EditorCurves: []
  m_EulerEditorCurves: []
  m_HasGenericRootTransform: 0
  m_HasMotionFloatCurves: 0
  m_Events: []
